%!PS-Adobe-3.0 EPSF-3.0
%%Creator: cairo 1.12.16 (http://cairographics.org)
%%CreationDate: Wed Mar 12 10:51:05 2014
%%Pages: 1
%%DocumentData: Clean7Bit
%%LanguageLevel: 2
%%BoundingBox: 0 -1 709 170
%%EndComments
%%BeginProlog
save
50 dict begin
/q { gsave } bind def
/Q { grestore } bind def
/cm { 6 array astore concat } bind def
/w { setlinewidth } bind def
/J { setlinecap } bind def
/j { setlinejoin } bind def
/M { setmiterlimit } bind def
/d { setdash } bind def
/m { moveto } bind def
/l { lineto } bind def
/c { curveto } bind def
/h { closepath } bind def
/re { exch dup neg 3 1 roll 5 3 roll moveto 0 rlineto
      0 exch rlineto 0 rlineto closepath } bind def
/S { stroke } bind def
/f { fill } bind def
/f* { eofill } bind def
/n { newpath } bind def
/W { clip } bind def
/W* { eoclip } bind def
/BT { } bind def
/ET { } bind def
/pdfmark where { pop globaldict /?pdfmark /exec load put }
    { globaldict begin /?pdfmark /pop load def /pdfmark
    /cleartomark load def end } ifelse
/BDC { mark 3 1 roll /BDC pdfmark } bind def
/EMC { mark /EMC pdfmark } bind def
/cairo_store_point { /cairo_point_y exch def /cairo_point_x exch def } def
/Tj { show currentpoint cairo_store_point } bind def
/TJ {
  {
    dup
    type /stringtype eq
    { show } { -0.001 mul 0 cairo_font_matrix dtransform rmoveto } ifelse
  } forall
  currentpoint cairo_store_point
} bind def
/cairo_selectfont { cairo_font_matrix aload pop pop pop 0 0 6 array astore
    cairo_font exch selectfont cairo_point_x cairo_point_y moveto } bind def
/Tf { pop /cairo_font exch def /cairo_font_matrix where
      { pop cairo_selectfont } if } bind def
/Td { matrix translate cairo_font_matrix matrix concatmatrix dup
      /cairo_font_matrix exch def dup 4 get exch 5 get cairo_store_point
      /cairo_font where { pop cairo_selectfont } if } bind def
/Tm { 2 copy 8 2 roll 6 array astore /cairo_font_matrix exch def
      cairo_store_point /cairo_font where { pop cairo_selectfont } if } bind def
/g { setgray } bind def
/rg { setrgbcolor } bind def
/d1 { setcachedevice } bind def
%%EndProlog
%%Page: 1 1
%%BeginPageSetup
%%PageBoundingBox: 0 -1 709 170
%%EndPageSetup
q 0 -1 709 171 rectclip q
0 0.239216 0.537255 rg
0 2.682 m 112.352 2.682 l 112.352 39.401 l 46.215 39.401 l 46.215 166.596
 l 0 166.596 l h
f
246.723 104.343 m 184.914 104.343 l 184.914 130.846 l 250.551 130.846 l
 250.551 166.596 l 138.699 166.596 l 138.699 2.682 l 254.117 2.682 l 254.117
 38.667 l 184.914 38.667 l 184.914 68.827 l 246.723 68.827 l h
f
363.215 34.776 m 340.75 34.776 327.203 55.456 327.203 84.632 c 327.203 
113.096 341.008 134.487 363.215 134.487 c 385.43 134.487 398.711 113.096
 398.711 84.882 c 398.711 55.214 385.688 34.776 363.215 34.776 c 361.688
 -0.001 m 414.547 -0.001 447.738 33.565 447.738 86.331 c 447.738 130.112
 419.648 169.272 364.23 169.272 c 311.375 169.272 278.691 131.335 278.691
 83.663 c 278.691 38.182 308.066 -0.001 361.43 -0.001 c h
f*
517.07 2.682 m 517.07 43.05 l 517.07 69.561 516.57 94.358 515.277 116.491
 c 516.309 116.491 l 524.473 96.557 535.973 74.663 545.418 57.163 c 574.527
 2.682 l 623.043 2.682 l 623.043 166.596 l 580.906 166.596 l 580.906 127.928
 l 580.906 103.354 581.93 80.503 584.488 58.854 c 583.723 58.854 l 576.055
 78.069 565.598 99.718 556.656 116.249 c 529.332 166.596 l 474.938 166.596
 l 474.938 2.682 l h
f*
662.422 166.596 46.238 -163.914 re f
Q Q
showpage
%%Trailer
end restore
%%EOF
